%YAML 1.1
%TAG !u! tag:unity3d.com,2011:
--- !u!78 &1
TagManager:
  serializedVersion: 2
  tags:
  - pickupAble
  - bullet
  - floor
  - wall
  - Fader
  - dontmove
  - listlast
  - House
  layers:
  - Default
  - TransparentFX
  - Ignore Raycast
  - 
  - Water
  - UI
  - 
  - 
  - NoFadeOut
  - ColliderGrid
  - Gazable
  - Player
  - LitStairs1
  - LitStairs2
  - Wall
  - TeleportPoints
  - DemoUI
  - Toys
  - Door
  - 
  - 
  - 
  - 
  - 
  - 
  - 
  - 
  - 
  - 
  - 
  - 
  - 
  m_SortingLayers:
  - name: Default
    uniqueID: 0
    locked: 0
